{
  "project_info": {
    "project_number": "884330001015",
    "firebase_url": "https://project2firebase.firebaseio.com",
    "project_id": "project2firebase",
    "storage_bucket": "project2firebase.appspot.com"
  },
  "client": [
    {
      "client_info": {
        "mobilesdk_app_id": "1:884330001015:android:dac81dcaabf140d4",
        "android_client_info": {
          "package_name": "edu.fsu.cs.mobile.riddlerumble"
        }
      },
      "oauth_client": [
        {
          "client_id": "884330001015-6s6eql2vlanift7nk5im2vnddam08j7m.apps.googleusercontent.com",
          "client_type": 1,
          "android_info": {
            "package_name": "edu.fsu.cs.mobile.riddlerumble",
            "certificate_hash": "1AC1A9B13BFC1ED8A420DEB9D97FF52953845E88"
          }
        },
        {
          "client_id": "884330001015-rdhknnqi00dqsd9ubqlimakcb09d8qnp.apps.googleusercontent.com",
          "client_type": 3
        }
      ],
      "api_key": [
        {
          "current_key": "AIzaSyAkiHkJnYvFcrMsTUyjv7nthUwXXNITSic"
        }
      ],
      "services": {
        "analytics_service": {
          "status": 1
        },
        "appinvite_service": {
          "status": 2,
          "other_platform_oauth_client": [
            {
              "client_id": "884330001015-rdhknnqi00dqsd9ubqlimakcb09d8qnp.apps.googleusercontent.com",
              "client_type": 3
            }
          ]
        },
        "ads_service": {
          "status": 2
        }
      }
    }
  ],
  "configuration_version": "1"
}